<?xml version="1.0" encoding="utf-8"?>
<!-- Generator: Adobe Illustrator 18.1.0, SVG Export Plug-In . SVG Version: 6.00 Build 0)  -->
<!DOCTYPE svg PUBLIC "-//W3C//DTD SVG 1.1//EN" "http://www.w3.org/Graphics/SVG/1.1/DTD/svg11.dtd">
<svg version="1.1" id="Layer_1" xmlns="http://www.w3.org/2000/svg" xmlns:xlink="http://www.w3.org/1999/xlink" x="0px" y="0px"
	 viewBox="0 0 812 480.4" enable-background="new 0 0 812 480.4" xml:space="preserve">
<g opacity="0.3">
	<path opacity="0.5" fill-rule="evenodd" clip-rule="evenodd" fill="#296B39" d="M178,341.7c-5.6-7.4-11.5-14.6-16.8-22.2
		c-13.1-18.9-12-30.3,4.3-48.3c17.7,6.6,18.3,7.5,23.7,37.1c9.6-6.5,19.4-13.1,32.1-21.8c-5.2,28-17.3,46-40.1,56.3
		C180.1,342.5,179.1,342.1,178,341.7z"/>
	<path opacity="0.5" fill-rule="evenodd" clip-rule="evenodd" fill="#3DB54A" d="M615.1,261.6c-16,6.4-30.8,11.1-44.5,17.9
		c-55.7,27.4-116.2,25.9-175.5,27.2c-25.5,0.6-52.5-7.5-76.8-16.9c-28.1-11-30.1-23.2-16.2-46.5c-14.3-7.1-29.5-13.1-42.6-22.1
		c-4.5-3.1-3.7-13.8-6.2-24.8c12.6,8,21.4,13.5,33.5,21.2c-2.1-7-3.2-10.3-4.1-13.6c-6.8-24.5,7.2-44,32.6-47.1
		c9.6-1.2,20-3.1,28.3-7.8c57.8-32.8,115.9-27.8,173.3-1.1c28.1,13.1,54.5,30.1,70.3,58.4C597.5,224.6,606,243.5,615.1,261.6z
		 M460.6,238.4c-8,1.8-13,6.2-5.5,13c11.7,10.7,24.6,20,37,29.9c3.7-28.1-11.8-37.7-32.3-42.7c16.7-0.5,33.5-1,50.2-1.5
		c0-1.6,0-3.2-0.1-4.8c-49.3,0-98.5-0.1-147.8-0.1c0,1.4,0,2.7,0,4.1C395,237,427.8,237.7,460.6,238.4z M353.2,229.8
		c17.4-27,33-51.3,37.3-83.8C365.9,160,343.7,208.2,353.2,229.8z M380.9,220.7c1.1,1.4,2.2,2.7,3.4,4.1c6.2-4.3,13.4-7.7,18.4-13.1
		c10.1-11.1,19.5-23,28.3-35.2c5.7-7.9,9.7-17.1,14.5-25.7c-1.9-1.1-3.9-2.2-5.8-3.3C414.8,167.7,393.6,190.8,380.9,220.7z M462,223
		c21.4-9.4,39-23.4,52.9-41.8c1.5-1.9,1.3-7.8,0-8.6c-2.9-1.7-7.9-2.8-10.4-1.4C483.7,182.6,468.4,198.8,462,223z M585.5,211.2
		c-27.7-17.3-49.2-13-57.8,10.4C547.7,224.8,567.1,227.9,585.5,211.2z M428.4,218.6c15.7-2.6,42.7-35.8,44.8-55.1
		C454.1,171.4,430.3,200.8,428.4,218.6z M395.4,291.4c-2.9-17.9-24.5-44.5-38.6-47.7C355,261.6,374.2,285.3,395.4,291.4z
		 M445.3,287.8c-9.7-22.1-33.9-44.8-46.3-44.4C404.1,264.8,423,283.4,445.3,287.8z M355,293.6c-3.5-14.6-5.6-25.9-9.2-36.7
		c-1-3-6.1-4.7-9.3-7c-2,2.9-5.6,5.8-5.7,8.7C330.6,273.8,335.2,286.4,355,293.6z M501.3,227.9c9.9-11.2,19.8-22.5,29.7-33.7
		C509.5,193.1,495.9,208.5,501.3,227.9z M342.8,166.9c-16.2,13.2-19.3,35.9-8.6,52.4C337.3,200.5,340,183.7,342.8,166.9z
		 M319.8,213.7c-0.4-16.8-0.7-29.3-1.1-43.9C299.8,183.9,299.9,194.3,319.8,213.7z M547.1,240.8c-0.7,1.5-1.4,3-2.1,4.5
		c13.9,16.7,24.3,20.1,40.7,10.9C571.4,250.6,559.3,245.7,547.1,240.8z M533.5,271c1.6-1.6,3.2-3.2,4.9-4.9
		c-4.1-12.4-12.6-20.2-24.5-24.1c-1.4,1.5-2.9,3-4.3,4.4C517.5,254.6,525.5,262.8,533.5,271z"/>
	<path opacity="0.5" fill-rule="evenodd" clip-rule="evenodd" fill="#3DB54A" d="M662.6,418.9c-27.1-6-51.5-13.2-76.4-16.4
		c-28.3-3.7-57.1-6.3-85.5-4.8c-40.6,2.2-77-8.7-110.2-29.8c-23.9-15.3-45.3-34.5-67.8-51.9c0.7-2,1.5-4,2.2-6
		c6.6-0.6,13.3-2.4,19.7-1.6c30.2,3.7,60.3,7.6,90.3,12.4c27.6,4.4,53.9-0.5,80.2-7.8c37.4-10.5,81.4,7.1,98,42.2
		c10.2,21.5,23.3,38.5,43,51c1.8,1.1,3.1,3.1,4.4,4.9C661.2,411.7,661.2,412.9,662.6,418.9z M353.9,314.7c-0.6,1.6-1.3,3.1-1.9,4.7
		c18.6,8.2,37.1,16.6,55.7,24.7c18.5,8,37,8.4,56.6,2.8c20.7-5.8,41.9-9.9,63.1-13.3c10.8-1.7,22-0.4,33.1-0.5
		c0.2-1.8,0.5-3.6,0.7-5.4c-8-1.6-16.2-5.2-23.9-4.3c-19.7,2.4-39.7,5-58.6,10.7c-28.4,8.6-55.2,7.7-82.2-4.4
		C382.9,323.6,368.1,319.6,353.9,314.7z M608.5,393.2c-6.1-19.9-53.5-42.5-77.7-38C557.3,368.2,581.7,380.2,608.5,393.2z
		 M536.6,382.3c0.8-2.2,1.6-4.3,2.4-6.5c-19.8-8-39.7-16-59.5-24c-0.7,1.8-1.5,3.7-2.2,5.5C491.3,379.3,518.7,369.5,536.6,382.3z
		 M400.9,346.8c6.3,17,11,20.1,45.6,31C432.5,368.3,418.5,358.8,400.9,346.8z M478.6,382.3c0.7-1.5,1.5-3,2.2-4.5
		c-11-6.5-22-12.9-32.9-19.4c-1.1,2.3-2.3,4.6-3.4,6.8C455.8,370.9,467.2,376.6,478.6,382.3z"/>
	<path opacity="0.5" fill-rule="evenodd" clip-rule="evenodd" fill="#DE4D4B" d="M132.8,168.2c2.6,0.9,5.1,1.8,10.4,3.6
		c-20.1,18.5-44.9,30.9-54.1,62c24.1-22.9,39.7-50.5,70.7-58.2c1.2,4.4,2.5,9,3.8,13.6c-0.5,35.1,23.1,62.5,54.4,62.5
		c-21.7-18.1-47-32.7-53.2-63.1c0.4-5.9,0.7-11.8,0.9-14.7c14.1,4.2,27.8,9.1,41.9,12.3c22.6,5.2,40.6,13.6,42.5,40.9
		c0.5,6.9,7,13.3,10.7,20c5.7,10.2,6.5,20-6.8,23.7c-15.3,4.2-31,7.8-46.8,9.1c-25,2.1-41-11.6-46.2-39.8c-3.2-17.6-3.4-35.8-8.3-54
		c-1.3,15-3.9,30.1-3.5,45c0.7,28.3-20.3,47.8-48.3,44.8c-6.8-0.7-14.4,4.2-21.3,7.1c-5,2.1-9.5,5.4-14.2,8.2
		c-1.6-5.5-3.7-10.9-4.6-16.5c-1.6-9.5-1.3-19.5-4-28.6c-4.2-14.7,0.5-37.4,15-47.8c13.2-9.5,28.8-15.8,43.4-23.3
		c4.8-2.5,9.8-4.4,14.7-6.6C130.9,168.1,131.9,168,132.8,168.2z"/>
	<path opacity="0.5" fill-rule="evenodd" clip-rule="evenodd" fill="#DE4D4B" d="M132.8,168.2c-1-0.2-1.9-0.2-2.9,0.2
		c-23.1,7.3-47.3,12.2-68.9,22.5C39.8,201.1,21,216.7,0,230.6c23.3-34.8,56.6-53.8,91.5-66C76,158,58.9,152.2,43.2,143.8
		C23.2,133.2,17.5,114,19.3,92.9c1.3-14.7,4.7-29.3,6.5-39.9c16.1-3.6,30.7-7.6,45.5-9.6c5-0.7,13.3,2,15.7,5.8
		c12.1,19.6,24.3,39.3,33.2,60.4c5.5,13.1,10.6,24,25,28l-0.4-0.5c-6,6.8-12.1,13.7-18.1,20.5c6.1-0.3,13.5-1,21-0.7
		c3.5,0.1,7.3,1.5,10.1,3.4c0.9,0.6,0.3,6.4-1.1,7.1c-2.8,1.5-6.6,1.5-10,1.6C142.1,168.9,137.5,168.5,132.8,168.2z M133.1,142.2
		c-12.9-7.1-28-13.6-41-23.1c-12.8-9.4-23.3-21.8-36.4-34.3C68.2,128.2,100.6,150.6,133.1,142.2z"/>
	<path opacity="0.5" fill-rule="evenodd" clip-rule="evenodd" fill="#DE4D4B" d="M306.3,131.1c-12.1,19-22.5,36.7-34.4,53.4
		c-3.2,4.4-11,7.8-16.6,7.6c-8.5-0.3-17-4-25.4-6.5c-15.8-4.8-31.5-9.7-47.1-14.9c-5.4-1.8-10.4-4.7-15.6-7
		c-0.2-1.8-0.5-3.6-0.8-5.5c12.2-5.3,24.1-11.4,36.6-15.7c12.9-4.4,26.4-6.9,40.4-10.5c-17.8-11.5-29.6-8.4-79.3,17.2
		c5.2-8.8,8.9-19,15.8-26.1c14.5-15,29.8-29.7,46.5-42.1c19.1-14.2,30.7-11,44,9.3c5.4,8.2,8.5,18.2,14.8,25.5
		C291.1,122.5,300,126.7,306.3,131.1z"/>
	<path opacity="0.5" fill-rule="evenodd" clip-rule="evenodd" fill="#DE4D4B" d="M145.2,137.5c-24.5-25.7-25-59.1-28.6-91.2
		c-1.5-13.7,5-24.9,18.8-30c15.1-5.6,30.4-10.6,47-16.4c7.9,8.2,21.6,21.4,34.1,35.6c10.2,11.6,9.5,24.8-0.1,36.3
		c-17.6,21-36,41.3-56,63.9c-8.5-32.3-8.2-62.2,6.3-91.5c-38,27.2-25.5,61.9-10.2,100.8c-6.9-4.8-9.3-6.5-11.7-8.1
		C144.9,137,145.2,137.5,145.2,137.5z"/>
	<path opacity="0.5" fill-rule="evenodd" clip-rule="evenodd" fill="#296B39" d="M620.3,336c23.1-17.1,48.9-14.8,71.9,4.6
		c36.1,30.4,75.1,56,119.8,72.7c-45.2,24.5-144.1-6.3-170.2-53.2c31.6-5.1,50.6,24.9,81.4,28.4C695.9,354.6,657.8,346.2,620.3,336z"
		/>
	<path opacity="0.5" fill-rule="evenodd" clip-rule="evenodd" fill="#296B39" d="M525.8,413c60.5-8.6,115.6,9.1,170.1,34.2
		c1.8-12.6-25.1-18.5-10.6-31.5c28.8,16.5,56.1,32.2,83.4,47.9c1,1.9,2.1,3.7,3.1,5.6c-8.3,2.4-16.5,5.2-24.9,7
		c-37.2,8-71.9,6.2-102.2-21.7c-27-24.8-61-34.8-96.9-39C540.6,414.7,533.2,413.9,525.8,413z"/>
	<path opacity="0.5" fill-rule="evenodd" clip-rule="evenodd" fill="#296B39" d="M627.9,292.2c-17.8-0.6-35.5-1.2-56.1-1.9
		c46.3-35.3,108.1-29.6,142.6,11c13.8,16.2,26.7,33.2,38.1,53.2c-13.9-7.7-27.8-15.4-41.8-23c-10.2-5.5-19.9-13-30.8-15.8
		c-11.6-3-24.7-3.7-36.5-1.5c-20,3.8-38.7,3.5-61.2-6.2c18.4-4.1,32.8-7.3,47.1-10.5C628.8,295.7,628.3,293.9,627.9,292.2z"/>
	<path opacity="0.5" fill-rule="evenodd" clip-rule="evenodd" fill="#296B39" d="M302.1,376.3c-56.5-14.7-93.8-69.2-64.9-98.7
		c8.8,11.7-0.4,33.3,19,37.3c3.5-15.1,7.1-30.5,11-46.8c25.9,13.6,34.3,29.9,33.3,54.5C299.8,340.6,301.5,358.6,302.1,376.3z"/>
</g>
</svg>
